{
  "actions": [
    {
      "type": "pointer",
      "id": "id_1",
      "parametrs": {
        "pointerType": "mouse"
      },
      "actions": [
        {
          "type": "pointerMove",
          "duration": 0,
          "origin": {
            "sessionId": "174ecf35f3e8bc9975f94a88f63ff794",
            "elementId": "3ccf15c6-b5f0-4677-bc47-6a1fbfc9a9f2",
            "element-6066-11e4-a52e-4f735466cecf": "3ccf15c6-b5f0-4677-bc47-6a1fbfc9a9f2",
            "selector": "input[type=\"range\"]",
            "parent": {
              "sessionId": "174ecf35f3e8bc9975f94a88f63ff794",
              "capabilities": {
                "acceptInsecureCerts": false,
                "browserName": "chrome",
                "browserVersion": "92.0.4515.159",
                "chrome": {
                  "chromedriverVersion": "92.0.4515.107 (87a818b10553a07434ea9e2b6dccf3cbe7895134-refs/branch-heads/4515@{#1634})",
                  "userDataDir": "/var/folders/43/nw8g9g791hj5w_kj_cqyxm_r0000gp/T/.com.google.Chrome.YXGwbl"
                },
                "goog:chromeOptions": {
                  "debuggerAddress": "localhost:53066"
                },
                "networkConnectionEnabled": false,
                "pageLoadStrategy": "normal",
                "platformName": "mac os x",
                "proxy": {},
                "setWindowRect": true,
                "strictFileInteractability": false,
                "timeouts": {
                  "implicit": 0,
                  "pageLoad": 300000,
                  "script": 30000
                },
                "unhandledPromptBehavior": "dismiss and notify",
                "webauthn:extension:credBlob": true,
                "webauthn:extension:largeBlob": true,
                "webauthn:virtualAuthenticators": true,
                "webdriver.remote.sessionid": "174ecf35f3e8bc9975f94a88f63ff794"
              },
              "config": {
                "specs": [
                  "./test/specs/example.e2e.js"
                ],
                "suites": {},
                "exclude": [],
                "logLevel": "debug",
                "logLevels": {},
                "excludeDriverLogs": [],
                "bail": 0,
                "waitforInterval": 500,
                "waitforTimeout": 10000,
                "framework": "mocha",
                "reporters": [
                  "spec",
                  [
                    "allure",
                    {
                      "outputDir": "allure-results",
                      "disableWebdriverStepsReporting": false,
                      "disableWebdriverScreenshotsReporting": true
                    }
                  ]
                ],
                "services": [
                  "selenium-standalone"
                ],
                "maxInstances": 2,
                "maxInstancesPerCapability": 100,
                "filesToWatch": [],
                "connectionRetryTimeout": 120000,
                "connectionRetryCount": 3,
                "execArgv": [],
                "runnerEnv": {},
                "runner": "local",
                "specFileRetries": 0,
                "specFileRetriesDelay": 0,
                "specFileRetriesDeferred": false,
                "reporterSyncInterval": 100,
                "reporterSyncTimeout": 5000,
                "cucumberFeaturesWithLineNumbers": [],
                "autoCompileOpts": {
                  "autoCompile": true,
                  "tsNodeOpts": {
                    "transpileOnly": true
                  },
                  "babelOpts": {}
                },
                "mochaOpts": {
                  "timeout": 6000000,
                  "ui": "bdd"
                },
                "jasmineOpts": {
                  "defaultTimeoutInterval": 10000
                },
                "cucumberOpts": {
                  "timeout": 10000
                },
                "onPrepare": [],
                "onWorkerStart": [],
                "before": [],
                "beforeSession": [],
                "beforeSuite": [],
                "beforeHook": [],
                "beforeTest": [],
                "beforeCommand": [],
                "afterCommand": [],
                "afterTest": [],
                "afterHook": [],
                "afterSuite": [],
                "afterSession": [],
                "after": [],
                "onComplete": [],
                "onReload": [],
                "beforeFeature": [],
                "beforeScenario": [],
                "beforeStep": [],
                "afterStep": [],
                "afterScenario": [],
                "afterFeature": [],
                "automationProtocol": "webdriver",
                "path": "/wd/hub",
                "baseUrl": "https://the-internet.herokuapp.com",
                "_": [
                  "./webdriverio.config.js"
                ],
                "$0": "/Users/avorobey/Skillbox/JS Automation/Module 6 - Customization wdio/Lesson 3 - custom reports/node_modules/.bin/wdio",
                "ignoredWorkerServices": []
              },
              "_NOT_FIBER": true
            },
            "isReactElement": false
          },
          "x": 11,
          "y": 0
        },
        {
          "type": "pointerDown",
          "button": 0
        },
        {
          "type": "pause",
          "duration": 10
        },
        {
          "type": "pointerMove",
          "duration": 0,
          "origin": {
            "sessionId": "174ecf35f3e8bc9975f94a88f63ff794",
            "elementId": "3ccf15c6-b5f0-4677-bc47-6a1fbfc9a9f2",
            "element-6066-11e4-a52e-4f735466cecf": "3ccf15c6-b5f0-4677-bc47-6a1fbfc9a9f2",
            "selector": "input[type=\"range\"]",
            "parent": {
              "sessionId": "174ecf35f3e8bc9975f94a88f63ff794",
              "capabilities": {
                "acceptInsecureCerts": false,
                "browserName": "chrome",
                "browserVersion": "92.0.4515.159",
                "chrome": {
                  "chromedriverVersion": "92.0.4515.107 (87a818b10553a07434ea9e2b6dccf3cbe7895134-refs/branch-heads/4515@{#1634})",
                  "userDataDir": "/var/folders/43/nw8g9g791hj5w_kj_cqyxm_r0000gp/T/.com.google.Chrome.YXGwbl"
                },
                "goog:chromeOptions": {
                  "debuggerAddress": "localhost:53066"
                },
                "networkConnectionEnabled": false,
                "pageLoadStrategy": "normal",
                "platformName": "mac os x",
                "proxy": {},
                "setWindowRect": true,
                "strictFileInteractability": false,
                "timeouts": {
                  "implicit": 0,
                  "pageLoad": 300000,
                  "script": 30000
                },
                "unhandledPromptBehavior": "dismiss and notify",
                "webauthn:extension:credBlob": true,
                "webauthn:extension:largeBlob": true,
                "webauthn:virtualAuthenticators": true,
                "webdriver.remote.sessionid": "174ecf35f3e8bc9975f94a88f63ff794"
              },
              "config": {
                "specs": [
                  "./test/specs/example.e2e.js"
                ],
                "suites": {},
                "exclude": [],
                "logLevel": "debug",
                "logLevels": {},
                "excludeDriverLogs": [],
                "bail": 0,
                "waitforInterval": 500,
                "waitforTimeout": 10000,
                "framework": "mocha",
                "reporters": [
                  "spec",
                  [
                    "allure",
                    {
                      "outputDir": "allure-results",
                      "disableWebdriverStepsReporting": false,
                      "disableWebdriverScreenshotsReporting": true
                    }
                  ]
                ],
                "services": [
                  "selenium-standalone"
                ],
                "maxInstances": 2,
                "maxInstancesPerCapability": 100,
                "filesToWatch": [],
                "connectionRetryTimeout": 120000,
                "connectionRetryCount": 3,
                "execArgv": [],
                "runnerEnv": {},
                "runner": "local",
                "specFileRetries": 0,
                "specFileRetriesDelay": 0,
                "specFileRetriesDeferred": false,
                "reporterSyncInterval": 100,
                "reporterSyncTimeout": 5000,
                "cucumberFeaturesWithLineNumbers": [],
                "autoCompileOpts": {
                  "autoCompile": true,
                  "tsNodeOpts": {
                    "transpileOnly": true
                  },
                  "babelOpts": {}
                },
                "mochaOpts": {
                  "timeout": 6000000,
                  "ui": "bdd"
                },
                "jasmineOpts": {
                  "defaultTimeoutInterval": 10000
                },
                "cucumberOpts": {
                  "timeout": 10000
                },
                "onPrepare": [],
                "onWorkerStart": [],
                "before": [],
                "beforeSession": [],
                "beforeSuite": [],
                "beforeHook": [],
                "beforeTest": [],
                "beforeCommand": [],
                "afterCommand": [],
                "afterTest": [],
                "afterHook": [],
                "afterSuite": [],
                "afterSession": [],
                "after": [],
                "onComplete": [],
                "onReload": [],
                "beforeFeature": [],
                "beforeScenario": [],
                "beforeStep": [],
                "afterStep": [],
                "afterScenario": [],
                "afterFeature": [],
                "automationProtocol": "webdriver",
                "path": "/wd/hub",
                "baseUrl": "https://the-internet.herokuapp.com",
                "_": [
                  "./webdriverio.config.js"
                ],
                "$0": "/Users/avorobey/Skillbox/JS Automation/Module 6 - Customization wdio/Lesson 3 - custom reports/node_modules/.bin/wdio",
                "ignoredWorkerServices": []
              },
              "_NOT_FIBER": true
            },
            "isReactElement": false
          },
          "x": 26,
          "y": 0
        },
        {
          "type": "pointerUp",
          "button": 0
        }
      ]
    }
  ]
}